
Cachorros Razas Medianas2 Kg.,15.99,https://www.petsonic.com/8032-large_default/pienso-para-perros-acana-cachorros-razas-medianas.jpg
Cachorros Razas Medianas6 Kg,34.39,https://www.petsonic.com/8032-large_default/pienso-para-perros-acana-cachorros-razas-medianas.jpg
Cachorros Razas Medianas11.4 Kg.,56.49,https://www.petsonic.com/8032-large_default/pienso-para-perros-acana-cachorros-razas-medianas.jpg
Cachorros Razas Medianas17 Kg,71.49,https://www.petsonic.com/8032-large_default/pienso-para-perros-acana-cachorros-razas-medianas.jpg
Cachorros Razas MedianasPack 2 x 17 Kg,139.99,https://www.petsonic.com/8032-large_default/pienso-para-perros-acana-cachorros-razas-medianas.jpg
Perro Adulto Razas Pequeñas2 Kg.,15.99,https://www.petsonic.com/8040-large_default/pienso-para-perros-acana-adulto-razas-pequenas.jpg
Perro Adulto Razas Pequeñas6 Kg,34.49,https://www.petsonic.com/8040-large_default/pienso-para-perros-acana-adulto-razas-pequenas.jpg
Perro Adulto Razas PequeñasPack 2 x 6 Kg,67.99,https://www.petsonic.com/8040-large_default/pienso-para-perros-acana-adulto-razas-pequenas.jpg
Perro Adulto Razas Grandes11.4 Kg.,56.49,https://www.petsonic.com/8039-large_default/pienso-para-perros-acana-adulto-razas-grandes.jpg
Perro Adulto Razas Grandes17 Kg,71.50,https://www.petsonic.com/8039-large_default/pienso-para-perros-acana-adulto-razas-grandes.jpg
Perro Adulto Razas GrandesPack 2 x 17 Kg,139.99,https://www.petsonic.com/8039-large_default/pienso-para-perros-acana-adulto-razas-grandes.jpg
Wild Prairie con Pollo2 Kg.,17.99,https://www.petsonic.com/10928-large_default/pienso-para-perros-acana-wild-prairie-pollo.jpg
"Wild Prairie con Pollo6,8 Kg",40.49,https://www.petsonic.com/10928-large_default/pienso-para-perros-acana-wild-prairie-pollo.jpg
Wild Prairie con Pollo11.4 Kg.,65.99,https://www.petsonic.com/10928-large_default/pienso-para-perros-acana-wild-prairie-pollo.jpg
Wild Prairie con PolloPack 2 x 11.4 Kg.,128.99,https://www.petsonic.com/10928-large_default/pienso-para-perros-acana-wild-prairie-pollo.jpg
Light & Fit2 Kg.,15.99,https://www.petsonic.com/8036-large_default/pienso-para-perros-acana-light-fit.jpg
Light & Fit6 Kg,34.49,https://www.petsonic.com/8036-large_default/pienso-para-perros-acana-light-fit.jpg
Light & Fit11.4 Kg.,56.49,https://www.petsonic.com/8036-large_default/pienso-para-perros-acana-light-fit.jpg
Light & FitPack 2 x 11.4 Kg.,107.30,https://www.petsonic.com/8036-large_default/pienso-para-perros-acana-light-fit.jpg
Grasslands con Cordero2 Kg.,21.99,https://www.petsonic.com/10926-large_default/pienso-para-perros-acana-grasslands-cordero.jpg
Grasslands con Cordero6 Kg,48.99,https://www.petsonic.com/10926-large_default/pienso-para-perros-acana-grasslands-cordero.jpg
Grasslands con Cordero11.4 Kg.,79.99,https://www.petsonic.com/10926-large_default/pienso-para-perros-acana-grasslands-cordero.jpg
Grasslands con CorderoPack 2 x 11.4 Kg.,155.98,https://www.petsonic.com/10926-large_default/pienso-para-perros-acana-grasslands-cordero.jpg
Cordero y Manzana 2 Kg.,22.99,https://www.petsonic.com/10930-large_default/pienso-para-perros-acana-cordero-manzana.jpg
Cordero y Manzana 6 Kg,47.49,https://www.petsonic.com/10930-large_default/pienso-para-perros-acana-cordero-manzana.jpg
Cordero y Manzana 11.4 Kg.,76.99,https://www.petsonic.com/10930-large_default/pienso-para-perros-acana-cordero-manzana.jpg
Cordero y Manzana 17 Kg,98.99,https://www.petsonic.com/10930-large_default/pienso-para-perros-acana-cordero-manzana.jpg
Cordero y Manzana Pack 2 x 17 Kg,194.99,https://www.petsonic.com/10930-large_default/pienso-para-perros-acana-cordero-manzana.jpg
Pacífica con Pescado2 Kg.,20.99,https://www.petsonic.com/11108-large_default/pienso-para-perros-acana-pacifica-pescado.jpg
Pacífica con Pescado6 Kg,45.49,https://www.petsonic.com/11108-large_default/pienso-para-perros-acana-pacifica-pescado.jpg
Pacífica con Pescado11.4 Kg.,73.99,https://www.petsonic.com/11108-large_default/pienso-para-perros-acana-pacifica-pescado.jpg
Pacífica con PescadoPack 2 x 11.4 Kg.,144.99,https://www.petsonic.com/11108-large_default/pienso-para-perros-acana-pacifica-pescado.jpg
Senior Dog2 Kg.,15.99,https://www.petsonic.com/8041-large_default/pienso-para-perros-acana-senior-dog.jpg
Senior Dog6 Kg,34.49,https://www.petsonic.com/8041-large_default/pienso-para-perros-acana-senior-dog.jpg
Senior Dog11.4 Kg.,56.49,https://www.petsonic.com/8041-large_default/pienso-para-perros-acana-senior-dog.jpg
Senior DogPack 2 x 11.4 Kg.,110.99,https://www.petsonic.com/8041-large_default/pienso-para-perros-acana-senior-dog.jpg
Sport and Agility Alto en Proteínas11.4 Kg.,57.49,https://www.petsonic.com/8042-large_default/pienso-para-perros-acana-sport-and-agility-alto-proteinas.jpg
Sport and Agility Alto en Proteínas17 Kg,73.99,https://www.petsonic.com/8042-large_default/pienso-para-perros-acana-sport-and-agility-alto-proteinas.jpg
Sport and Agility Alto en ProteínasPack 2 x 17 Kg,144.99,https://www.petsonic.com/8042-large_default/pienso-para-perros-acana-sport-and-agility-alto-proteinas.jpg
Cachorro Razas Pequeñas3 Kg.,15.85,https://www.petsonic.com/8062-large_default/pienso-para-perros-affinity-advance-cachorro-razas-pequenas.jpg
"Cachorro Razas Pequeñas7,5 Kg",30.65,https://www.petsonic.com/8062-large_default/pienso-para-perros-affinity-advance-cachorro-razas-pequenas.jpg
Cachorro Razas PequeñasPack 2 x 7.5 Kg,59.30,https://www.petsonic.com/8062-large_default/pienso-para-perros-affinity-advance-cachorro-razas-pequenas.jpg
Cachorro Razas Medianas3 Kg.,16.55,https://www.petsonic.com/8060-large_default/pienso-para-perros-affinity-advance-cachorro-razas-medianas.jpg
Cachorro Razas Medianas12 Kg,44.95,https://www.petsonic.com/8060-large_default/pienso-para-perros-affinity-advance-cachorro-razas-medianas.jpg
Cachorro Razas MedianasPack 2 x 12 Kg,87.90,https://www.petsonic.com/8060-large_default/pienso-para-perros-affinity-advance-cachorro-razas-medianas.jpg
Cachorro Razas Grandes3 Kg.,17.95,https://www.petsonic.com/8059-large_default/pienso-para-perros-affinity-advance-cachorro-razas-grandes.jpg
Cachorro Razas Grandes12 Kg,46.95,https://www.petsonic.com/8059-large_default/pienso-para-perros-affinity-advance-cachorro-razas-grandes.jpg
Cachorro Razas GrandesPack 2 x 12 Kg,91.90,https://www.petsonic.com/8059-large_default/pienso-para-perros-affinity-advance-cachorro-razas-grandes.jpg
Junior Razas Grandes15 Kg,49.70,https://www.petsonic.com/8065-large_default/pienso-para-perros-affinity-advance-junior-razas-grandes.jpg
Junior Razas GrandesPack  2 x 15 Kg,97.40,https://www.petsonic.com/8065-large_default/pienso-para-perros-affinity-advance-junior-razas-grandes.jpg
Adulto Razas Pequeñas3 Kg.,15.85,https://www.petsonic.com/8055-large_default/pienso-para-perros-affinity-advance-adulto-razas-pequenas.jpg
"Adulto Razas Pequeñas7,5 Kg",25.95,https://www.petsonic.com/8055-large_default/pienso-para-perros-affinity-advance-adulto-razas-pequenas.jpg
Adulto Razas PequeñasPack 2 x 7.5 Kg,49.95,https://www.petsonic.com/8055-large_default/pienso-para-perros-affinity-advance-adulto-razas-pequenas.jpg
Adulto Razas Medianas3 Kg.,15.85,https://www.petsonic.com/8054-large_default/pienso-para-perros-affinity-advance-adulto-razas-medianas.jpg
Adulto Razas Medianas18 Kg,49.95,https://www.petsonic.com/8054-large_default/pienso-para-perros-affinity-advance-adulto-razas-medianas.jpg
Adulto Razas MedianasPack 2 x 18 Kg,97.90,https://www.petsonic.com/8054-large_default/pienso-para-perros-affinity-advance-adulto-razas-medianas.jpg
Maxi Adult Razas Grandes18 Kg,46.98,https://www.petsonic.com/8210-large_default/pienso-para-perros-affinity-advance-maxi-adult-razas-grandes.jpg
Maxi Adult Razas GrandesPack 2 x 18 Kg,89.48,https://www.petsonic.com/8210-large_default/pienso-para-perros-affinity-advance-maxi-adult-razas-grandes.jpg
Adulto Sensitive con Salmón y Arroz3 Kg.,18.55,https://www.petsonic.com/8048-large_default/pienso-para-perros-affinity-advance-adulto-sensitive-salmon-arroz.jpg
Adulto Sensitive con Salmón y Arroz12 Kg,42.95,https://www.petsonic.com/8048-large_default/pienso-para-perros-affinity-advance-adulto-sensitive-salmon-arroz.jpg
Adulto Sensitive con Salmón y ArrozPack 2 x 12 Kg,81.95,https://www.petsonic.com/8048-large_default/pienso-para-perros-affinity-advance-adulto-sensitive-salmon-arroz.jpg
Adulto con Cordero y Arroz3 Kg.,17.85,https://www.petsonic.com/8052-large_default/pienso-para-perros-affinity-advance-adulto-cordero-arroz.jpg
Adulto con Cordero y Arroz12 Kg,42.75,https://www.petsonic.com/8052-large_default/pienso-para-perros-affinity-advance-adulto-cordero-arroz.jpg
Adulto con Cordero y ArrozPack 2 x 12 Kg,83.50,https://www.petsonic.com/8052-large_default/pienso-para-perros-affinity-advance-adulto-cordero-arroz.jpg
Light Razas Pequeñas3 Kg.,16.85,https://www.petsonic.com/8087-large_default/pienso-para-perros-affinity-advance-light-razas-pequenas.jpg
Light Razas PequeñasPack 2 x 3 Kg,31.15,https://www.petsonic.com/8087-large_default/pienso-para-perros-affinity-advance-light-razas-pequenas.jpg
